sim/fpu_tb.vcd
$date
	Sun Apr 12 19:39:53 2026
$end
$version
	Icarus Verilog
$end
$timescale
	1ps
$end
$scope module fpu_tb $end
$var wire 1 ! valid_out $end
$var wire 64 " result [63:0] $end
$var wire 2 # precision_out [1:0] $end
$var wire 5 $ exceptions [4:0] $end
$var parameter 16 % FP16_0_5 $end
$var parameter 16 & FP16_1_0 $end
$var parameter 16 ' FP16_2_0 $end
$var parameter 16 ( FP16_3_0 $end
$var parameter 16 ) FP16_4_0 $end
$var parameter 16 * FP16_5_0 $end
$var parameter 16 + FP16_6_0 $end
$var parameter 16 , FP16_7_0 $end
$var parameter 16 - FP16_8_0 $end
$var parameter 32 . FP32_0_5 $end
$var parameter 32 / FP32_10_0 $end
$var parameter 32 0 FP32_12_0 $end
$var parameter 32 1 FP32_1_0 $end
$var parameter 32 2 FP32_2_0 $end
$var parameter 32 3 FP32_3_0 $end
$var parameter 32 4 FP32_4_0 $end
$var parameter 32 5 FP32_5_0 $end
$var parameter 32 6 FP32_6_0 $end
$var parameter 32 7 FP32_8_0 $end
$var parameter 64 8 FP64_0_5 $end
$var parameter 64 9 FP64_1_0 $end
$var parameter 64 : FP64_2_0 $end
$var parameter 64 ; FP64_3_0 $end
$var parameter 64 < FP64_4_0 $end
$var parameter 64 = FP64_6_0 $end
$var parameter 64 > FP64_8_0 $end
$var reg 1 ? clk $end
$var reg 2 @ op [1:0] $end
$var reg 64 A operand_a [63:0] $end
$var reg 64 B operand_b [63:0] $end
$var reg 2 C precision [1:0] $end
$var reg 1 D rst_n $end
$var reg 1 E valid_in $end
$var integer 32 F pass_count [31:0] $end
$var integer 32 G test_count [31:0] $end
$scope function fp16_to_real $end
$upscope $end
$scope function fp32_to_real $end
$upscope $end
$scope function fp64_to_real $end
$upscope $end
$scope module dut $end
$var wire 1 H ce $end
$var wire 1 ? clk $end
$var wire 5 I exceptions [4:0] $end
$var wire 1 J not_used_ce $end
$var wire 2 K op [1:0] $end
$var wire 64 L operand_a [63:0] $end
$var wire 64 M operand_b [63:0] $end
$var wire 2 N precision [1:0] $end
$var wire 2 O precision_out [1:0] $end
$var wire 64 P result [63:0] $end
$var wire 1 D rst_n $end
$var wire 1 E valid_in $end
$var wire 64 Q packed_result [63:0] $end
$var wire 1 R pack_underflow $end
$var wire 1 S pack_overflow $end
$var wire 1 T core_valid_out $end
$var wire 69 U core_result [68:0] $end
$var wire 5 V core_exceptions [4:0] $end
$var wire 69 W b_unpacked [68:0] $end
$var wire 69 X a_unpacked [68:0] $end
$var reg 2 Y core_precision [1:0] $end
$var reg 1 Z core_valid_in $end
$var reg 64 [ current_operand_a [63:0] $end
$var reg 64 \ current_operand_b [63:0] $end
$var reg 2 ] current_slot [1:0] $end
$var reg 5 ^ exceptions_reg [4:0] $end
$var reg 4 _ next_state [3:0] $end
$var reg 2 ` op_reg [1:0] $end
$var reg 64 a operand_a_reg [63:0] $end
$var reg 64 b operand_b_reg [63:0] $end
$var reg 2 c precision_reg [1:0] $end
$var reg 64 d result_reg [63:0] $end
$var reg 4 e state [3:0] $end
$var reg 1 ! valid_out $end
$scope module core $end
$var wire 1 ? clk $end
$var wire 2 f op [1:0] $end
$var wire 1 D rst_n $end
$var wire 1 Z valid_in $end
$var wire 1 g b_sign_eff $end
$var wire 69 h b [68:0] $end
$var wire 69 i a [68:0] $end
$var reg 1 j addsub_a_larger $end
$var reg 12 k addsub_exp_diff [11:0] $end
$var reg 12 l addsub_exp_large [11:0] $end
$var reg 12 m addsub_exp_result [11:0] $end
$var reg 6 n addsub_lzc [5:0] $end
$var reg 55 o addsub_mant_large [54:0] $end
$var reg 53 p addsub_mant_result [52:0] $end
$var reg 55 q addsub_mant_small_shifted [54:0] $end
$var reg 56 r addsub_mant_sum [55:0] $end
$var reg 1 s addsub_sign_large $end
$var reg 1 t addsub_sign_result $end
$var reg 13 u div_exp_diff [12:0] $end
$var reg 11 v div_exp_result [10:0] $end
$var reg 107 w div_mant_dividend [106:0] $end
$var reg 54 x div_mant_quotient [53:0] $end
$var reg 53 y div_mant_result [52:0] $end
$var reg 1 z div_sign_result $end
$var reg 5 { exc_comb [4:0] $end
$var reg 5 | exceptions [4:0] $end
$var reg 11 } mul_exp_result [10:0] $end
$var reg 12 ~ mul_exp_sum [11:0] $end
$var reg 106 !" mul_mant_product [105:0] $end
$var reg 53 "" mul_mant_result [52:0] $end
$var reg 1 #" mul_sign_result $end
$var reg 69 $" result [68:0] $end
$var reg 69 %" result_comb [68:0] $end
$var reg 1 T valid_out $end
$scope function count_leading_zeros $end
$upscope $end
$upscope $end
$scope module pack $end
$var wire 69 &" internal [68:0] $end
$var wire 1 '" is_overflow $end
$var wire 1 (" is_underflow $end
$var wire 1 S overflow $end
$var wire 2 )" precision [1:0] $end
$var wire 1 R underflow $end
$var parameter 11 *" FP16_EMAX_FP64 $end
$var parameter 11 +" FP16_EMIN_FP64 $end
$var parameter 11 ," FP32_EMAX_FP64 $end
$var parameter 11 -" FP32_EMIN_FP64 $end
$var parameter 11 ." FP64_EMAX $end
$var parameter 11 /" FP64_EMIN $end
$var reg 11 0" exp_max [10:0] $end
$var reg 11 1" exp_min [10:0] $end
$var reg 11 2" exp_rebias [10:0] $end
$var reg 64 3" packed_result [63:0] $end
$var reg 1 4" sign_out $end
$upscope $end
$scope module unpack_a $end
$var wire 64 5" operand [63:0] $end
$var wire 2 6" precision [1:0] $end
$var wire 69 7" unpacked [68:0] $end
$var reg 11 8" exp_adjusted [10:0] $end
$var reg 11 9" exp_raw [10:0] $end
$var reg 52 :" frac [51:0] $end
$var reg 1 ;" is_exp_max $end
$var reg 1 <" is_exp_zero $end
$var reg 1 =" is_frac_zero $end
$var reg 53 >" mant [52:0] $end
$var reg 1 ?" sign $end
$upscope $end
$scope module unpack_b $end
$var wire 64 @" operand [63:0] $end
$var wire 2 A" precision [1:0] $end
$var wire 69 B" unpacked [68:0] $end
$var reg 11 C" exp_adjusted [10:0] $end
$var reg 11 D" exp_raw [10:0] $end
$var reg 52 E" frac [51:0] $end
$var reg 1 F" is_exp_max $end
$var reg 1 G" is_exp_zero $end
$var reg 1 H" is_frac_zero $end
$var reg 53 I" mant [52:0] $end
$var reg 1 J" sign $end
$upscope $end
$upscope $end
$scope task test_fp16_simd $end
$upscope $end
$scope task test_fp32_simd $end
$upscope $end
$scope task test_fp64 $end
$upscope $end
$scope task wait_valid $end
$upscope $end
$upscope $end
$enddefinitions $end
$comment Show the parameter values. $end
$dumpall
b1 /"
b11111111110 ."
b1110000001 -"
b10001111110 ,"
b1111110001 +"
b10000001110 *"
b100000000100000000000000000000000000000000000000000000000000000 >
b100000000011000000000000000000000000000000000000000000000000000 =
b100000000010000000000000000000000000000000000000000000000000000 <
b100000000001000000000000000000000000000000000000000000000000000 ;
b100000000000000000000000000000000000000000000000000000000000000 :
b11111111110000000000000000000000000000000000000000000000000000 9
b11111111100000000000000000000000000000000000000000000000000000 8
b1000001000000000000000000000000 7
b1000000110000000000000000000000 6
b1000000101000000000000000000000 5
b1000000100000000000000000000000 4
b1000000010000000000000000000000 3
b1000000000000000000000000000000 2
b111111100000000000000000000000 1
b1000001010000000000000000000000 0
b1000001001000000000000000000000 /
b111111000000000000000000000000 .
b100100000000000 -
b100011100000000 ,
b100011000000000 +
b100010100000000 *
b100010000000000 )
b100001000000000 (
b100000000000000 '
b11110000000000 &
b11100000000000 %
$end
#0
$dumpvars
0J"
b0 I"
1H"
1G"
0F"
b0 E"
b0 D"
b0 C"
b1000 B"
b10 A"
b0 @"
0?"
b0 >"
1="
1<"
0;"
b0 :"
b0 9"
b0 8"
b1000 7"
b10 6"
b0 5"
04"
b0 3"
b0 2"
b1 1"
b11111111110 0"
b10 )"
0("
0'"
b0 &"
b1000 %"
b0 $"
0#"
b0 ""
b0 !"
b110000000001 ~
b10000000001 }
b0 |
b0 {
0z
b11111111111111111111111111111111111111111111111111111 y
b111111111111111111111111111111111111111111111111111111 x
b0 w
b1111111111 v
b1111111111 u
0t
0s
b0 r
b0 q
b0 p
b0 o
b110111 n
b0 m
b0 l
b0 k
1j
b1000 i
b1000 h
0g
b0 f
b0 e
b0 d
b10 c
b0 b
b0 a
b0 `
b0 _
b0 ^
b0 ]
b0 \
b0 [
0Z
b10 Y
b1000 X
b1000 W
b0 V
b0 U
0T
0S
0R
b0 Q
b0 P
b10 O
b10 N
b0 M
b0 L
b0 K
zJ
b0 I
zH
b0 G
b0 F
0E
0D
b10 C
b0 B
b0 A
b0 @
0?
b0 $
b10 #
b0 "
0!
$end
#5000
1?
#10000
0?
#15000
1?
#20000
0?
#25000
1?
#30000
0?
#35000
1?
#40000
0?
#45000
b1000 U
b1000 $"
b1000 &"
1D
1?
#50000
0?
#55000
1?
#60000
0?
#65000
1?
#70000
0?
#75000
1?
#80000
0?
#85000
1?
#90000
0?
#95000
b1 G
1?
#100000
0?
#105000
b1 _
b100000000000000000000000000000000000000000000000000000000000000 B
b100000000000000000000000000000000000000000000000000000000000000 M
b11111111110000000000000000000000000000000000000000000000000000 A
b11111111110000000000000000000000000000000000000000000000000000 L
1E
1?
#110000
0?
#115000
b10000000000110000000000000000000000000000000000000000000000000000000 %"
b10000000000000000000000000000000000000000000000000000 y
b1111111110 v
b1111111110 u
b100000000000000000000000000000000000000000000000000000 x
b1000000000000000000000000000000000000000000000000000000000000000000000000000000000000000000000000000000000 w
b10000000000000000000000000000000000000000000000000000 ""
b10000000000 }
b10000000000 ~
b100000000000000000000000000000000000000000000000000000000000000000000000000000000000000000000000000000000 !"
b11000000000000000000000000000000000000000000000000000 p
b10000000000 m
b11000000000000000000000000000000000000000000000000000 r
b1000000000000000000000000000000000000000000000000000 q
b10000000000000000000000000000000000000000000000000000 o
b10000000000 l
b1 k
0j
b10000000000000000000000000000000000000000000000000000 I"
b10000000000100000000000000000000000000000000000000000000000000000000 W
b10000000000100000000000000000000000000000000000000000000000000000000 h
b10000000000100000000000000000000000000000000000000000000000000000000 B"
b10000000000 C"
b10000000000000000000000000000000000000000000000000000 >"
b1111111111100000000000000000000000000000000000000000000000000000000 X
b1111111111100000000000000000000000000000000000000000000000000000000 i
b1111111111100000000000000000000000000000000000000000000000000000000 7"
b1111111111 8"
0G"
b10000000000 D"
0<"
b1111111111 9"
1Z
b100000000000000000000000000000000000000000000000000000000000000 \
b100000000000000000000000000000000000000000000000000000000000000 @"
b11111111110000000000000000000000000000000000000000000000000000 [
b11111111110000000000000000000000000000000000000000000000000000 5"
b10 _
b100000000000000000000000000000000000000000000000000000000000000 b
b11111111110000000000000000000000000000000000000000000000000000 a
b1 e
0E
1?
#120000
0?
#125000
b0 _
0Z
b100000000001000000000000000000000000000000000000000000000000000 Q
b100000000001000000000000000000000000000000000000000000000000000 3"
b10000000000 2"
b10 e
b10000000000110000000000000000000000000000000000000000000000000000000 U
b10000000000110000000000000000000000000000000000000000000000000000000 $"
b10000000000110000000000000000000000000000000000000000000000000000000 &"
1T
1?
#130000
0?
#135000
0T
1!
b100000000001000000000000000000000000000000000000000000000000000 "
b100000000001000000000000000000000000000000000000000000000000000 P
b100000000001000000000000000000000000000000000000000000000000000 d
b0 e
1?
#140000
0?
#145000
0!
1?
#150000
0?
#155000
b10 G
b1 F
1?
#160000
0?
#165000
b1 _
b11111111110000000000000000000000000000000000000000000000000000 B
b11111111110000000000000000000000000000000000000000000000000000 M
b100000000001000000000000000000000000000000000000000000000000000 A
b100000000001000000000000000000000000000000000000000000000000000 L
b1 @
b1 K
1E
1?
#170000
0?
#175000
b11000000000000000000000000000000000000000000000000000 y
b10000000000 v
b10000000000 u
b110000000000000000000000000000000000000000000000000000 x
b1100000000000000000000000000000000000000000000000000000000000000000000000000000000000000000000000000000000 w
b11000000000000000000000000000000000000000000000000000 ""
b110000000000000000000000000000000000000000000000000000000000000000000000000000000000000000000000000000000 !"
b11000000000000000000000000000000000000000000000000000 o
1j
b1111111111100000000000000000000000000000000000000000000000000000000 W
b1111111111100000000000000000000000000000000000000000000000000000000 h
b1111111111100000000000000000000000000000000000000000000000000000000 B"
b1111111111 C"
b11000000000000000000000000000000000000000000000000000 >"
b10000000000110000000000000000000000000000000000000000000000000000000 X
b10000000000110000000000000000000000000000000000000000000000000000000 i
b10000000000110000000000000000000000000000000000000000000000000000000 7"
b10000000000 8"
b10000000000000000000000000000000000000000000000000000 p
b10000000000 m
b11 n
0t
b10000000000000000000000000000000000000000000000000000 r
0s
b1111111111 D"
0="
b1000000000000000000000000000000000000000000000000000 :"
b10000000000 9"
b10000000000100000000000000000000000000000000000000000000000000000000 %"
1g
1Z
b11111111110000000000000000000000000000000000000000000000000000 \
b11111111110000000000000000000000000000000000000000000000000000 @"
b100000000001000000000000000000000000000000000000000000000000000 [
b100000000001000000000000000000000000000000000000000000000000000 5"
b10 _
b0 "
b0 P
b0 d
b1 `
b1 f
b11111111110000000000000000000000000000000000000000000000000000 b
b100000000001000000000000000000000000000000000000000000000000000 a
b1 e
0E
1?
#180000
0?
#185000
b0 _
0Z
b100000000000000000000000000000000000000000000000000000000000000 Q
b100000000000000000000000000000000000000000000000000000000000000 3"
b10 e
b10000000000100000000000000000000000000000000000000000000000000000000 U
b10000000000100000000000000000000000000000000000000000000000000000000 $"
b10000000000100000000000000000000000000000000000000000000000000000000 &"
1T
1?
#190000
0?
#195000
0T
1!
b100000000000000000000000000000000000000000000000000000000000000 "
b100000000000000000000000000000000000000000000000000000000000000 P
b100000000000000000000000000000000000000000000000000000000000000 d
b0 e
1?
#200000
0?
#205000
0!
1?
#210000
0?
#215000
b11 G
b10 F
1?
#220000
0?
#225000
b1 _
b100000000001000000000000000000000000000000000000000000000000000 B
b100000000001000000000000000000000000000000000000000000000000000 M
b100000000000000000000000000000000000000000000000000000000000000 A
b100000000000000000000000000000000000000000000000000000000000000 L
b10 @
b10 K
1E
1?
#230000
0?
#235000
b10101010101010101010101010101010101010101010101010101 y
b1111111110 v
b1111111111 u
b10101010101010101010101010101010101010101010101010101 x
b1000000000000000000000000000000000000000000000000000000000000000000000000000000000000000000000000000000000 w
b10000000001 }
b10000000001 ~
b10100000000000000000000000000000000000000000000000000 p
b11000000000000000000000000000000000000000000000000000 q
b10000000000000000000000000000000000000000000000000000 o
b0 k
b11000000000000000000000000000000000000000000000000000 I"
b10000000000110000000000000000000000000000000000000000000000000000000 W
b10000000000110000000000000000000000000000000000000000000000000000000 h
b10000000000110000000000000000000000000000000000000000000000000000000 B"
b10000000000 C"
b10000000000100000000000000000000000000000000000000000000000000000000 X
b10000000000100000000000000000000000000000000000000000000000000000000 i
b10000000000100000000000000000000000000000000000000000000000000000000 7"
b10000000000000000000000000000000000000000000000000000 >"
b10000000001 m
b101000000000000000000000000000000000000000000000000000 r
0H"
b1000000000000000000000000000000000000000000000000000 E"
b10000000000 D"
1="
b0 :"
b10000000001110000000000000000000000000000000000000000000000000000000 %"
0g
1Z
b100000000001000000000000000000000000000000000000000000000000000 \
b100000000001000000000000000000000000000000000000000000000000000 @"
b100000000000000000000000000000000000000000000000000000000000000 [
b100000000000000000000000000000000000000000000000000000000000000 5"
b10 _
b0 "
b0 P
b0 d
b10 `
b10 f
b100000000001000000000000000000000000000000000000000000000000000 b
b100000000000000000000000000000000000000000000000000000000000000 a
b1 e
0E
1?
#240000
0?
#245000
b0 _
0Z
b100000000011000000000000000000000000000000000000000000000000000 Q
b100000000011000000000000000000000000000000000000000000000000000 3"
b10000000001 2"
b10 e
b10000000001110000000000000000000000000000000000000000000000000000000 U
b10000000001110000000000000000000000000000000000000000000000000000000 $"
b10000000001110000000000000000000000000000000000000000000000000000000 &"
1T
1?
#250000
0?
#255000
0T
1!
b100000000011000000000000000000000000000000000000000000000000000 "
b100000000011000000000000000000000000000000000000000000000000000 P
b100000000011000000000000000000000000000000000000000000000000000 d
b0 e
1?
#260000
0?
#265000
0!
1?
#270000
0?
#275000
b100 G
b11 F
1?
#280000
0?
#285000
b1 _
b100000000000000000000000000000000000000000000000000000000000000 B
b100000000000000000000000000000000000000000000000000000000000000 M
b100000000100000000000000000000000000000000000000000000000000000 A
b100000000100000000000000000000000000000000000000000000000000000 L
b11 @
b11 K
1E
1?
#290000
0?
#295000
b10000000000000000000000000000000000000000000000000000 y
b10000000001 v
b10000000001 u
b100000000000000000000000000000000000000000000000000000 x
b10000000000000000000000000000000000000000000000000000 ""
b10000000011 }
b10000000011 ~
b100000000000000000000000000000000000000000000000000000000000000000000000000000000000000000000000000000000 !"
b10000000010 m
b10100000000000000000000000000000000000000000000000000 r
b100000000000000000000000000000000000000000000000000 q
b10000000010 l
b10 k
b10000000000100000000000000000000000000000000000000000000000000000000 W
b10000000000100000000000000000000000000000000000000000000000000000000 h
b10000000000100000000000000000000000000000000000000000000000000000000 B"
b10000000000000000000000000000000000000000000000000000 I"
b10000000010100000000000000000000000000000000000000000000000000000000 X
b10000000010100000000000000000000000000000000000000000000000000000000 i
b10000000010100000000000000000000000000000000000000000000000000000000 7"
b10000000010 8"
1H"
b0 E"
b10000000010 9"
b10000000001100000000000000000000000000000000000000000000000000000000 %"
1Z
b100000000000000000000000000000000000000000000000000000000000000 \
b100000000000000000000000000000000000000000000000000000000000000 @"
b100000000100000000000000000000000000000000000000000000000000000 [
b100000000100000000000000000000000000000000000000000000000000000 5"
b10 _
b0 "
b0 P
b0 d
b11 `
b11 f
b100000000000000000000000000000000000000000000000000000000000000 b
b100000000100000000000000000000000000000000000000000000000000000 a
b1 e
0E
1?
#300000
0?
#305000
b0 _
0Z
b100000000010000000000000000000000000000000000000000000000000000 Q
b100000000010000000000000000000000000000000000000000000000000000 3"
b10 e
b10000000001100000000000000000000000000000000000000000000000000000000 U
b10000000001100000000000000000000000000000000000000000000000000000000 $"
b10000000001100000000000000000000000000000000000000000000000000000000 &"
1T
1?
#310000
0?
#315000
0T
1!
b100000000010000000000000000000000000000000000000000000000000000 "
b100000000010000000000000000000000000000000000000000000000000000 P
b100000000010000000000000000000000000000000000000000000000000000 d
b0 e
1?
#320000
0?
#325000
0!
1?
#330000
0?
#335000
b101 G
b100 F
1?
#340000
0?
#345000
b11 _
b100000010000000000000000000000001000000000000000000000000000000 B
b100000010000000000000000000000001000000000000000000000000000000 M
b100000001000000000000000000000000111111100000000000000000000000 A
b100000001000000000000000000000000111111100000000000000000000000 L
b0 @
b0 K
b1 C
b1 N
1E
1?
#350000
0?
#355000
b1111111110 v
b1111111110 u
b10000000000 }
b10000000000 ~
b11000000000000000000000000000000000000000000000000000 p
b10000000000 m
b11000000000000000000000000000000000000000000000000000 r
b1000000000000000000000000000000000000000000000000000 q
b10000000000 l
b1 k
0j
b1000000100000000000000000000000 Q
b1000000100000000000000000000000 3"
b10000001 2"
b10001111110 0"
b1110000001 1"
b1111111111100000000000000000000000000000000000000000000000000000000 X
b1111111111100000000000000000000000000000000000000000000000000000000 i
b1111111111100000000000000000000000000000000000000000000000000000000 7"
b1111111111 8"
b10000000 D"
b1111111 9"
b10000000000110000000000000000000000000000000000000000000000000000000 %"
1Z
b1 Y
b1 )"
b1 6"
b1 A"
b1000000000000000000000000000000 \
b1000000000000000000000000000000 @"
b111111100000000000000000000000 [
b111111100000000000000000000000 5"
b100 _
b0 "
b0 P
b0 d
b1 #
b1 O
b1 c
b0 `
b0 f
b100000010000000000000000000000001000000000000000000000000000000 b
b100000001000000000000000000000000111111100000000000000000000000 a
b11 e
0E
1?
#360000
0?
#365000
b101 _
0Z
b1 Y
b1 )"
b1 6"
b1 A"
b1000000000000000000000000000000 \
b1000000000000000000000000000000 @"
b111111100000000000000000000000 [
b111111100000000000000000000000 5"
b1000000010000000000000000000000 Q
b1000000010000000000000000000000 3"
b10000000 2"
b100 e
b10000000000110000000000000000000000000000000000000000000000000000000 U
b10000000000110000000000000000000000000000000000000000000000000000000 $"
b10000000000110000000000000000000000000000000000000000000000000000000 &"
1T
1?
#370000
0?
#375000
b10000000001111000000000000000000000000000000000000000000000000000000 %"
b11000000000000000000000000000000000000000000000000000 y
b110000000000000000000000000000000000000000000000000000 x
b1100000000000000000000000000000000000000000000000000000000000000000000000000000000000000000000000000000000 w
b11000000000000000000000000000000000000000000000000000 ""
b10000000010 }
b10000000010 ~
b110000000000000000000000000000000000000000000000000000000000000000000000000000000000000000000000000000000 !"
b11100000000000000000000000000000000000000000000000000 p
b10000000001 m
b11100000000000000000000000000000000000000000000000000 r
b1100000000000000000000000000000000000000000000000000 q
b10000000001 l
b11000000000000000000000000000000000000000000000000000 >"
b10000000000110000000000000000000000000000000000000000000000000000000 X
b10000000000110000000000000000000000000000000000000000000000000000000 i
b10000000000110000000000000000000000000000000000000000000000000000000 7"
b10000000000 8"
b10000000001100000000000000000000000000000000000000000000000000000000 W
b10000000001100000000000000000000000000000000000000000000000000000000 h
b10000000001100000000000000000000000000000000000000000000000000000000 B"
b10000000001 C"
b10000001 D"
0="
b1000000000000000000000000000000000000000000000000000 :"
b10000000 9"
b110 _
b1 ]
1Z
b1 Y
b1 )"
b1 6"
b1 A"
b1000000100000000000000000000000 \
b1000000100000000000000000000000 @"
b1000000010000000000000000000000 [
b1000000010000000000000000000000 5"
0T
b1000000010000000000000000000000 "
b1000000010000000000000000000000 P
b1000000010000000000000000000000 d
b101 e
1?
#380000
0?
#385000
b0 _
0Z
b1 Y
b1 )"
b1 6"
b1 A"
b1000000100000000000000000000000 \
b1000000100000000000000000000000 @"
b1000000010000000000000000000000 [
b1000000010000000000000000000000 5"
b1000000111000000000000000000000 Q
b1000000111000000000000000000000 3"
b10000001 2"
b110 e
b10000000001111000000000000000000000000000000000000000000000000000000 U
b10000000001111000000000000000000000000000000000000000000000000000000 $"
b10000000001111000000000000000000000000000000000000000000000000000000 &"
1T
1?
#390000
0?
#395000
b10000001000100010000000000000000010000111111100000000000000000000000 %"
b11111111111111111111111111111000000000000000000000011 y
b1111111010 v
b1111111011 u
b11111111111111111111111111111000000000000000000000011 x
b1000000000000000000000011111110000000000000000000000000000000000000000000000000000000000000000000000000000 w
b10000000000000000000001111111100000000000000011111110 ""
b10000001101 }
b10000001101 ~
b100000000000000000000011111111000000000000000111111100000000000000000000000000000000000000000000000000000 !"
b10001000000000000000001000011111110000000000000000000 p
b10000001000 m
b10001000000000000000001000011111110000000000000000000 r
b1000000000000000000000011111110000000000000000000 q
b10000000000000000000001000000000000000000000000000000 o
b10000001000 l
b100 k
b10000000000000000000001000000000000000000000000000000 I"
b10000000000000000000000111111100000000000000000000000 >"
b100000000011100000000000000000000000000000000000000000000000000 Q
b100000000011100000000000000000000000000000000000000000000000000 3"
b10000000001 2"
b11111111110 0"
b1 1"
b10000000100100000000000000000000001111111000000000000000000000000000 X
b10000000100100000000000000000000001111111000000000000000000000000000 i
b10000000100100000000000000000000001111111000000000000000000000000000 7"
b10000000100 8"
b10000001000100000000000000000000010000000000000000000000000000000000 W
b10000001000100000000000000000000010000000000000000000000000000000000 h
b10000001000100000000000000000000010000000000000000000000000000000000 B"
b10000001000 C"
0H"
b1000000000000000000000000000000 E"
b10000001000 D"
b111111100000000000000000000000 :"
b10000000100 9"
b0 ]
b10 Y
b10 )"
b10 6"
b10 A"
b100000010000000000000000000000001000000000000000000000000000000 \
b100000010000000000000000000000001000000000000000000000000000000 @"
b100000001000000000000000000000000111111100000000000000000000000 [
b100000001000000000000000000000000111111100000000000000000000000 5"
0T
1!
b100000011100000000000000000000001000000010000000000000000000000 "
b100000011100000000000000000000001000000010000000000000000000000 P
b100000011100000000000000000000001000000010000000000000000000000 d
b0 e
1?
#400000
0?
#405000
b100000010000001000000000000000001000011111110000000000000000000 Q
b100000010000001000000000000000001000011111110000000000000000000 3"
b10000001000 2"
0!
b10000001000100010000000000000000010000111111100000000000000000000000 U
b10000001000100010000000000000000010000111111100000000000000000000000 $"
b10000001000100010000000000000000010000111111100000000000000000000000 &"
1?
#410000
0?
#415000
b110 G
b101 F
1?
#420000
0?
#425000
b11 _
b100000001000000000000000000000000111111100000000000000000000000 B
b100000001000000000000000000000000111111100000000000000000000000 M
b100000010100000000000000000000001000000100000000000000000000000 A
b100000010100000000000000000000001000000100000000000000000000000 L
b1 @
b1 K
1E
1?
#430000
0?
#435000
b10000000000000000000000000000000000000000000000000000 y
b10000000001 v
b10000000001 u
b100000000000000000000000000000000000000000000000000000 x
b1000000000000000000000000000000000000000000000000000000000000000000000000000000000000000000000000000000000 w
b10000000000000000000000000000000000000000000000000000 ""
b10000000001 }
b10000000001 ~
b100000000000000000000000000000000000000000000000000000000000000000000000000000000000000000000000000000000 !"
b10000000000000000000000000000000000000000000000000000 I"
b10000000000000000000000000000000000000000000000000000 >"
b11000000000000000000000000000000000000000000000000000 p
b10000000000 m
b1100000000000000000000000000000000000000000000000000 r
b100000000000000000000000000000000000000000000000000 q
b10000000000000000000000000000000000000000000000000000 o
b10000000001 l
b10 k
1j
b1000100000010000000000000000010 Q
b1000100000010000000000000000010 3"
b10001000 2"
b10001111110 0"
b1110000001 1"
b10000000001100000000000000000000000000000000000000000000000000000000 X
b10000000001100000000000000000000000000000000000000000000000000000000 i
b10000000001100000000000000000000000000000000000000000000000000000000 7"
b10000000001 8"
b1111111111100000000000000000000000000000000000000000000000000000000 W
b1111111111100000000000000000000000000000000000000000000000000000000 h
b1111111111100000000000000000000000000000000000000000000000000000000 B"
b1111111111 C"
1H"
b0 E"
b1111111 D"
1="
b0 :"
b10000001 9"
b10000000000110000000000000000000000000000000000000000000000000000000 %"
1g
1Z
b1 Y
b1 )"
b1 6"
b1 A"
b111111100000000000000000000000 \
b111111100000000000000000000000 @"
b1000000100000000000000000000000 [
b1000000100000000000000000000000 5"
b100 _
b0 "
b0 P
b0 d
b1 `
b1 f
b100000001000000000000000000000000111111100000000000000000000000 b
b100000010100000000000000000000001000000100000000000000000000000 a
b11 e
0E
1?
#440000
0?
#445000
b101 _
0Z
b1 Y
b1 )"
b1 6"
b1 A"
b111111100000000000000000000000 \
b111111100000000000000000000000 @"
b1000000100000000000000000000000 [
b1000000100000000000000000000000 5"
b1000000010000000000000000000000 Q
b1000000010000000000000000000000 3"
b10000000 2"
b100 e
b10000000000110000000000000000000000000000000000000000000000000000000 U
b10000000000110000000000000000000000000000000000000000000000000000000 $"
b10000000000110000000000000000000000000000000000000000000000000000000 &"
1T
1?
#450000
0?
#455000
b10000000000100000000000000000000000000000000000000000000000000000000 %"
b11010101010101010101010101010101010101010101010101010 y
b1111111111 v
b10000000000 u
b11010101010101010101010101010101010101010101010101010 x
b1010000000000000000000000000000000000000000000000000000000000000000000000000000000000000000000000000000000 w
b11110000000000000000000000000000000000000000000000000 ""
b10000000010 }
b10000000010 ~
b111100000000000000000000000000000000000000000000000000000000000000000000000000000000000000000000000000000 !"
b10000000000000000000000000000000000000000000000000000 p
b1000000000000000000000000000000000000000000000000000 r
b1100000000000000000000000000000000000000000000000000 q
b10100000000000000000000000000000000000000000000000000 o
b1 k
b11000000000000000000000000000000000000000000000000000 I"
b10000000001101000000000000000000000000000000000000000000000000000000 X
b10000000001101000000000000000000000000000000000000000000000000000000 i
b10000000001101000000000000000000000000000000000000000000000000000000 7"
b10100000000000000000000000000000000000000000000000000 >"
b10000000000110000000000000000000000000000000000000000000000000000000 W
b10000000000110000000000000000000000000000000000000000000000000000000 h
b10000000000110000000000000000000000000000000000000000000000000000000 B"
b10000000000 C"
0H"
b1000000000000000000000000000000000000000000000000000 E"
b10000000 D"
0="
b100000000000000000000000000000000000000000000000000 :"
b110 _
b1 ]
1Z
b1 Y
b1 )"
b1 6"
b1 A"
b1000000010000000000000000000000 \
b1000000010000000000000000000000 @"
b1000000101000000000000000000000 [
b1000000101000000000000000000000 5"
0T
b1000000010000000000000000000000 "
b1000000010000000000000000000000 P
b1000000010000000000000000000000 d
b101 e
1?
#460000
0?
#465000
b0 _
0Z
b1 Y
b1 )"
b1 6"
b1 A"
b1000000010000000000000000000000 \
b1000000010000000000000000000000 @"
b1000000101000000000000000000000 [
b1000000101000000000000000000000 5"
b1000000000000000000000000000000 Q
b1000000000000000000000000000000 3"
b110 e
b10000000000100000000000000000000000000000000000000000000000000000000 U
b10000000000100000000000000000000000000000000000000000000000000000000 $"
b10000000000100000000000000000000000000000000000000000000000000000000 &"
1T
1?
#470000
0?
