sim/fpu_tb.vcd
$date
	Sun Apr  5 00:25:13 2026
$end
$version
	Icarus Verilog
$end
$timescale
	1ps
$end
$scope module fpu_tb $end
$var wire 1 ! valid_out $end
$var wire 64 " result [63:0] $end
$var wire 2 # precision_out [1:0] $end
$var wire 5 $ exceptions [4:0] $end
$var reg 1 % clk $end
$var reg 2 & op [1:0] $end
$var reg 64 ' operand_a [63:0] $end
$var reg 64 ( operand_b [63:0] $end
$var reg 2 ) precision [1:0] $end
$var reg 1 * rst_n $end
$var reg 1 + valid_in $end
$var integer 32 , pass_count [31:0] $end
$var integer 32 - test_count [31:0] $end
$scope function fp16_to_real $end
$upscope $end
$scope function fp32_to_real $end
$upscope $end
$scope function fp64_to_real $end
$upscope $end
$scope module dut $end
$var wire 1 % clk $end
$var wire 5 . exceptions [4:0] $end
$var wire 2 / op [1:0] $end
$var wire 64 0 operand_a [63:0] $end
$var wire 64 1 operand_b [63:0] $end
$var wire 2 2 precision [1:0] $end
$var wire 2 3 precision_out [1:0] $end
$var wire 64 4 result [63:0] $end
$var wire 1 * rst_n $end
$var wire 1 + valid_in $end
$var wire 64 5 packed_result [63:0] $end
$var wire 1 6 pack_underflow $end
$var wire 1 7 pack_overflow $end
$var wire 1 8 core_valid_out $end
$var wire 69 9 core_result [68:0] $end
$var wire 5 : core_exceptions [4:0] $end
$var wire 69 ; b_unpacked [68:0] $end
$var wire 69 < a_unpacked [68:0] $end
$var reg 2 = core_precision [1:0] $end
$var reg 1 > core_valid_in $end
$var reg 64 ? current_operand_a [63:0] $end
$var reg 64 @ current_operand_b [63:0] $end
$var reg 2 A current_slot [1:0] $end
$var reg 5 B exceptions_reg [4:0] $end
$var reg 4 C next_state [3:0] $end
$var reg 2 D op_reg [1:0] $end
$var reg 64 E operand_a_reg [63:0] $end
$var reg 64 F operand_b_reg [63:0] $end
$var reg 2 G precision_reg [1:0] $end
$var reg 64 H result_reg [63:0] $end
$var reg 4 I state [3:0] $end
$var reg 1 ! valid_out $end
$scope module core $end
$var wire 1 % clk $end
$var wire 2 J op [1:0] $end
$var wire 1 * rst_n $end
$var wire 1 > valid_in $end
$var wire 1 K b_sign_eff $end
$var wire 69 L b [68:0] $end
$var wire 69 M a [68:0] $end
$var reg 1 N addsub_a_larger $end
$var reg 12 O addsub_exp_diff [11:0] $end
$var reg 12 P addsub_exp_large [11:0] $end
$var reg 12 Q addsub_exp_result [11:0] $end
$var reg 6 R addsub_lzc [5:0] $end
$var reg 55 S addsub_mant_large [54:0] $end
$var reg 53 T addsub_mant_result [52:0] $end
$var reg 55 U addsub_mant_small_shifted [54:0] $end
$var reg 56 V addsub_mant_sum [55:0] $end
$var reg 1 W addsub_sign_large $end
$var reg 1 X addsub_sign_result $end
$var reg 13 Y div_exp_diff [12:0] $end
$var reg 11 Z div_exp_result [10:0] $end
$var reg 107 [ div_mant_dividend [106:0] $end
$var reg 54 \ div_mant_quotient [53:0] $end
$var reg 53 ] div_mant_result [52:0] $end
$var reg 1 ^ div_sign_result $end
$var reg 5 _ exc_comb [4:0] $end
$var reg 5 ` exceptions [4:0] $end
$var reg 11 a mul_exp_result [10:0] $end
$var reg 12 b mul_exp_sum [11:0] $end
$var reg 106 c mul_mant_product [105:0] $end
$var reg 53 d mul_mant_result [52:0] $end
$var reg 1 e mul_sign_result $end
$var reg 69 f result [68:0] $end
$var reg 69 g result_comb [68:0] $end
$var reg 1 8 valid_out $end
$scope function count_leading_zeros $end
$upscope $end
$upscope $end
$scope module pack $end
$var wire 69 h internal [68:0] $end
$var wire 1 i is_overflow $end
$var wire 1 j is_underflow $end
$var wire 1 7 overflow $end
$var wire 2 k precision [1:0] $end
$var wire 1 6 underflow $end
$var reg 11 l exp_max [10:0] $end
$var reg 11 m exp_min [10:0] $end
$var reg 11 n exp_rebias [10:0] $end
$var reg 64 o packed_result [63:0] $end
$var reg 1 p sign_out $end
$upscope $end
$scope module unpack_a $end
$var wire 64 q operand [63:0] $end
$var wire 2 r precision [1:0] $end
$var wire 69 s unpacked [68:0] $end
$var reg 11 t exp_adjusted [10:0] $end
$var reg 11 u exp_raw [10:0] $end
$var reg 52 v frac [51:0] $end
$var reg 1 w is_exp_max $end
$var reg 1 x is_exp_zero $end
$var reg 1 y is_frac_zero $end
$var reg 53 z mant [52:0] $end
$var reg 1 { sign $end
$upscope $end
$scope module unpack_b $end
$var wire 64 | operand [63:0] $end
$var wire 2 } precision [1:0] $end
$var wire 69 ~ unpacked [68:0] $end
$var reg 11 !" exp_adjusted [10:0] $end
$var reg 11 "" exp_raw [10:0] $end
$var reg 52 #" frac [51:0] $end
$var reg 1 $" is_exp_max $end
$var reg 1 %" is_exp_zero $end
$var reg 1 &" is_frac_zero $end
$var reg 53 '" mant [52:0] $end
$var reg 1 (" sign $end
$upscope $end
$upscope $end
$scope task test_fp16_simd $end
$upscope $end
$scope task test_fp32_simd $end
$upscope $end
$scope task test_fp64 $end
$upscope $end
$scope task wait_valid $end
$upscope $end
$upscope $end
$enddefinitions $end
#0
$dumpvars
0("
b0 '"
1&"
1%"
0$"
b0 #"
b0 ""
b0 !"
b1000 ~
b10 }
b0 |
0{
b0 z
1y
1x
0w
b0 v
b0 u
b0 t
b1000 s
b10 r
b0 q
0p
b0 o
b0 n
b1 m
b11111111110 l
b10 k
0j
0i
b0 h
b1000 g
b0 f
0e
b0 d
b0 c
b110000000001 b
b10000000001 a
b0 `
b0 _
0^
b11111111111111111111111111111111111111111111111111111 ]
b111111111111111111111111111111111111111111111111111111 \
b0 [
b1111111111 Z
b1111111111 Y
0X
0W
b0 V
b0 U
b0 T
b0 S
b110111 R
b0 Q
b0 P
b0 O
1N
b1000 M
b1000 L
0K
b0 J
b0 I
b0 H
b10 G
b0 F
b0 E
b0 D
b0 C
b0 B
b0 A
b0 @
b0 ?
0>
b10 =
b1000 <
b1000 ;
b0 :
b0 9
08
07
06
b0 5
b0 4
b10 3
b10 2
b0 1
b0 0
b0 /
b0 .
b0 -
b0 ,
0+
0*
b10 )
b0 (
b0 '
b0 &
0%
b0 $
b10 #
b0 "
0!
$end
#5000
1%
#10000
0%
#15000
1%
#20000
0%
#25000
1%
#30000
0%
#35000
1%
#40000
0%
#45000
b1000 g
b1000 9
b1000 f
b1000 h
1*
1%
#50000
0%
#55000
1%
#60000
0%
#65000
1%
#70000
0%
#75000
1%
#80000
0%
#85000
1%
#90000
0%
#95000
b1 -
1%
#100000
0%
#105000
b1000 g
b1 C
b100000000000000000000000000000000000000000000000000000000000000 (
b100000000000000000000000000000000000000000000000000000000000000 1
b11111111110000000000000000000000000000000000000000000000000000 '
b11111111110000000000000000000000000000000000000000000000000000 0
1+
1%
#110000
0%
#115000
b10000000000000000000000000000000000000000000000000000 ]
b1111111110 Z
b1111111110 Y
b100000000000000000000000000000000000000000000000000000 \
b1000000000000000000000000000000000000000000000000000000000000000000000000000000000000000000000000000000000 [
b10000000000000000000000000000000000000000000000000000 d
b10000000000 a
b10000000000 b
b100000000000000000000000000000000000000000000000000000000000000000000000000000000000000000000000000000000 c
b11000000000000000000000000000000000000000000000000000 T
b10000000000 Q
b11000000000000000000000000000000000000000000000000000 V
b1000000000000000000000000000000000000000000000000000 U
b10000000000000000000000000000000000000000000000000000 S
b10000000000 P
b1 O
0N
b10000000000000000000000000000000000000000000000000000 z
b1111111111100000000000000000000000000000000000000000000000000000000 <
b1111111111100000000000000000000000000000000000000000000000000000000 M
b1111111111100000000000000000000000000000000000000000000000000000000 s
b1111111111 t
b10000000000000000000000000000000000000000000000000000 '"
b10000000000100000000000000000000000000000000000000000000000000000000 ;
b10000000000100000000000000000000000000000000000000000000000000000000 L
b10000000000100000000000000000000000000000000000000000000000000000000 ~
b10000000000 !"
0x
b1111111111 u
0%"
b10000000000 ""
b10000000000110000000000000000000000000000000000000000000000000000000 g
b100000000000000000000000000000000000000000000000000000000000000 @
b100000000000000000000000000000000000000000000000000000000000000 |
b11111111110000000000000000000000000000000000000000000000000000 ?
b11111111110000000000000000000000000000000000000000000000000000 q
1>
b10 C
b100000000000000000000000000000000000000000000000000000000000000 F
b11111111110000000000000000000000000000000000000000000000000000 E
b1 I
0+
1%
#120000
0%
#125000
b0 C
0>
b100000000001000000000000000000000000000000000000000000000000000 5
b100000000001000000000000000000000000000000000000000000000000000 o
b10000000000110000000000000000000000000000000000000000000000000000000 g
b10000000000 n
b10 I
b10000000000110000000000000000000000000000000000000000000000000000000 9
b10000000000110000000000000000000000000000000000000000000000000000000 f
b10000000000110000000000000000000000000000000000000000000000000000000 h
18
1%
#130000
0%
#135000
b10000000000110000000000000000000000000000000000000000000000000000000 g
08
1!
b100000000001000000000000000000000000000000000000000000000000000 "
b100000000001000000000000000000000000000000000000000000000000000 4
b100000000001000000000000000000000000000000000000000000000000000 H
b0 I
1%
#140000
0%
#145000
0!
1%
#150000
0%
#155000
b10 -
b1 ,
1%
#160000
0%
#165000
b10000000000110000000000000000000000000000000000000000000000000000000 g
b1 C
b11111111110000000000000000000000000000000000000000000000000000 (
b11111111110000000000000000000000000000000000000000000000000000 1
b100000000001000000000000000000000000000000000000000000000000000 '
b100000000001000000000000000000000000000000000000000000000000000 0
b1 &
b1 /
1+
1%
#170000
0%
#175000
b11000000000000000000000000000000000000000000000000000 d
b110000000000000000000000000000000000000000000000000000000000000000000000000000000000000000000000000000000 c
b11000000000000000000000000000000000000000000000000000 ]
b10000000000 Z
b10000000000 Y
b110000000000000000000000000000000000000000000000000000 \
b1100000000000000000000000000000000000000000000000000000000000000000000000000000000000000000000000000000000 [
b10000000000000000000000000000000000000000000000000000 T
b10000000000000000000000000000000000000000000000000000 V
b11000000000000000000000000000000000000000000000000000 S
1N
b11000000000000000000000000000000000000000000000000000 z
b10000000000110000000000000000000000000000000000000000000000000000000 <
b10000000000110000000000000000000000000000000000000000000000000000000 M
b10000000000110000000000000000000000000000000000000000000000000000000 s
b10000000000 t
b1111111111100000000000000000000000000000000000000000000000000000000 ;
b1111111111100000000000000000000000000000000000000000000000000000000 L
b1111111111100000000000000000000000000000000000000000000000000000000 ~
b1111111111 !"
1K
0y
b1000000000000000000000000000000000000000000000000000 v
b10000000000 u
b1111111111 ""
b10000000000100000000000000000000000000000000000000000000000000000000 g
b11111111110000000000000000000000000000000000000000000000000000 @
b11111111110000000000000000000000000000000000000000000000000000 |
b100000000001000000000000000000000000000000000000000000000000000 ?
b100000000001000000000000000000000000000000000000000000000000000 q
1>
b10 C
b0 "
b0 4
b0 H
b1 D
b1 J
b11111111110000000000000000000000000000000000000000000000000000 F
b100000000001000000000000000000000000000000000000000000000000000 E
b1 I
0+
1%
#180000
0%
#185000
b0 C
0>
b100000000000000000000000000000000000000000000000000000000000000 5
b100000000000000000000000000000000000000000000000000000000000000 o
b10000000000100000000000000000000000000000000000000000000000000000000 g
b10 I
b10000000000100000000000000000000000000000000000000000000000000000000 9
b10000000000100000000000000000000000000000000000000000000000000000000 f
b10000000000100000000000000000000000000000000000000000000000000000000 h
18
1%
#190000
0%
#195000
b10000000000100000000000000000000000000000000000000000000000000000000 g
08
1!
b100000000000000000000000000000000000000000000000000000000000000 "
b100000000000000000000000000000000000000000000000000000000000000 4
b100000000000000000000000000000000000000000000000000000000000000 H
b0 I
1%
#200000
0%
#205000
0!
1%
#210000
0%
#215000
b11 -
b10 ,
1%
#220000
0%
#225000
b10000000000100000000000000000000000000000000000000000000000000000000 g
b1 C
b100000000001000000000000000000000000000000000000000000000000000 (
b100000000001000000000000000000000000000000000000000000000000000 1
b100000000000000000000000000000000000000000000000000000000000000 '
b100000000000000000000000000000000000000000000000000000000000000 0
b10 &
b10 /
1+
1%
#230000
0%
#235000
b10000000001 a
b10000000001 b
b10101010101010101010101010101010101010101010101010101 ]
b1111111110 Z
b1111111111 Y
b10101010101010101010101010101010101010101010101010101 \
b1000000000000000000000000000000000000000000000000000000000000000000000000000000000000000000000000000000000 [
b10100000000000000000000000000000000000000000000000000 T
b10000000001 Q
b101000000000000000000000000000000000000000000000000000 V
b11000000000000000000000000000000000000000000000000000 U
b10000000000000000000000000000000000000000000000000000 S
b0 O
b10000000000100000000000000000000000000000000000000000000000000000000 <
b10000000000100000000000000000000000000000000000000000000000000000000 M
b10000000000100000000000000000000000000000000000000000000000000000000 s
b10000000000000000000000000000000000000000000000000000 z
b11000000000000000000000000000000000000000000000000000 '"
b10000000000110000000000000000000000000000000000000000000000000000000 ;
b10000000000110000000000000000000000000000000000000000000000000000000 L
b10000000000110000000000000000000000000000000000000000000000000000000 ~
b10000000000 !"
0K
1y
b0 v
0&"
b1000000000000000000000000000000000000000000000000000 #"
b10000000000 ""
b10000000001110000000000000000000000000000000000000000000000000000000 g
b100000000001000000000000000000000000000000000000000000000000000 @
b100000000001000000000000000000000000000000000000000000000000000 |
b100000000000000000000000000000000000000000000000000000000000000 ?
b100000000000000000000000000000000000000000000000000000000000000 q
1>
b10 C
b0 "
b0 4
b0 H
b10 D
b10 J
b100000000001000000000000000000000000000000000000000000000000000 F
b100000000000000000000000000000000000000000000000000000000000000 E
b1 I
0+
1%
#240000
0%
#245000
b0 C
0>
b100000000011000000000000000000000000000000000000000000000000000 5
b100000000011000000000000000000000000000000000000000000000000000 o
b10000000001110000000000000000000000000000000000000000000000000000000 g
b10000000001 n
b10 I
b10000000001110000000000000000000000000000000000000000000000000000000 9
b10000000001110000000000000000000000000000000000000000000000000000000 f
b10000000001110000000000000000000000000000000000000000000000000000000 h
18
1%
#250000
0%
#255000
b10000000001110000000000000000000000000000000000000000000000000000000 g
08
1!
b100000000011000000000000000000000000000000000000000000000000000 "
b100000000011000000000000000000000000000000000000000000000000000 4
b100000000011000000000000000000000000000000000000000000000000000 H
b0 I
1%
#260000
0%
#265000
0!
1%
#270000
0%
#275000
b100 -
b11 ,
1%
#280000
0%
#285000
b10000000001110000000000000000000000000000000000000000000000000000000 g
b1 C
b100000000000000000000000000000000000000000000000000000000000000 (
b100000000000000000000000000000000000000000000000000000000000000 1
b100000000100000000000000000000000000000000000000000000000000000 '
b100000000100000000000000000000000000000000000000000000000000000 0
b11 &
b11 /
1+
1%
#290000
0%
#295000
b10000000000000000000000000000000000000000000000000000 ]
b10000000001 Z
b10000000001 Y
b100000000000000000000000000000000000000000000000000000 \
b10000000000000000000000000000000000000000000000000000 d
b10000000011 a
b10000000011 b
b100000000000000000000000000000000000000000000000000000000000000000000000000000000000000000000000000000000 c
b10000000010 Q
b10100000000000000000000000000000000000000000000000000 V
b100000000000000000000000000000000000000000000000000 U
b10000000010 P
b10 O
b10000000010100000000000000000000000000000000000000000000000000000000 <
b10000000010100000000000000000000000000000000000000000000000000000000 M
b10000000010100000000000000000000000000000000000000000000000000000000 s
b10000000010 t
b10000000000100000000000000000000000000000000000000000000000000000000 ;
b10000000000100000000000000000000000000000000000000000000000000000000 L
b10000000000100000000000000000000000000000000000000000000000000000000 ~
b10000000000000000000000000000000000000000000000000000 '"
b10000000010 u
1&"
b0 #"
b10000000001100000000000000000000000000000000000000000000000000000000 g
b100000000000000000000000000000000000000000000000000000000000000 @
b100000000000000000000000000000000000000000000000000000000000000 |
b100000000100000000000000000000000000000000000000000000000000000 ?
b100000000100000000000000000000000000000000000000000000000000000 q
1>
b10 C
b0 "
b0 4
b0 H
b11 D
b11 J
b100000000000000000000000000000000000000000000000000000000000000 F
b100000000100000000000000000000000000000000000000000000000000000 E
b1 I
0+
1%
#300000
0%
#305000
b0 C
0>
b100000000010000000000000000000000000000000000000000000000000000 5
b100000000010000000000000000000000000000000000000000000000000000 o
b10000000001100000000000000000000000000000000000000000000000000000000 g
b10 I
b10000000001100000000000000000000000000000000000000000000000000000000 9
b10000000001100000000000000000000000000000000000000000000000000000000 f
b10000000001100000000000000000000000000000000000000000000000000000000 h
18
1%
#310000
0%
#315000
b10000000001100000000000000000000000000000000000000000000000000000000 g
08
1!
b100000000010000000000000000000000000000000000000000000000000000 "
b100000000010000000000000000000000000000000000000000000000000000 4
b100000000010000000000000000000000000000000000000000000000000000 H
b0 I
1%
#320000
0%
#325000
0!
1%
#330000
0%
#335000
b101 -
b100 ,
1%
#340000
0%
#345000
b10000000001100000000000000000000000000000000000000000000000000000000 g
b11 C
b100000010000000000000000000000001000000000000000000000000000000 (
b100000010000000000000000000000001000000000000000000000000000000 1
b100000001000000000000000000000000111111100000000000000000000000 '
b100000001000000000000000000000000111111100000000000000000000000 0
b0 &
b0 /
b1 )
b1 2
1+
1%
#350000
0%
#355000
b1111111110 Z
b1111111110 Y
b11000000000000000000000000000000000000000000000000000 T
b11000000000000000000000000000000000000000000000000000 V
b1000000000000000000000000000000000000000000000000000 U
b1 O
0N
b10000000000 a
b10000000000 b
b10000000000 Q
b10000000000 P
b1111111 u
b1111111111100000000000000000000000000000000000000000000000000000000 <
b1111111111100000000000000000000000000000000000000000000000000000000 M
b1111111111100000000000000000000000000000000000000000000000000000000 s
b1111111111 t
b10000000 ""
b10000000000100000000000000000000000000000000000000000000000000000000 ;
b10000000000100000000000000000000000000000000000000000000000000000000 L
b10000000000100000000000000000000000000000000000000000000000000000000 ~
b10000000000 !"
b10000000000110000000000000000000000000000000000000000000000000000000 g
b10001111110 l
b1110000001 m
b10000001 n
b1000000100000000000000000000000 5
b1000000100000000000000000000000 o
b1 =
b1 k
b1 r
b1 }
b1000000000000000000000000000000 @
b1000000000000000000000000000000 |
b111111100000000000000000000000 ?
b111111100000000000000000000000 q
1>
b100 C
b0 "
b0 4
b0 H
b1 #
b1 3
b1 G
b0 D
b0 J
b100000010000000000000000000000001000000000000000000000000000000 F
b100000001000000000000000000000000111111100000000000000000000000 E
b11 I
0+
1%
#360000
0%
#365000
b101 C
0>
b1 =
b1 k
b1 r
b1 }
b1000000000000000000000000000000 @
b1000000000000000000000000000000 |
b111111100000000000000000000000 ?
b111111100000000000000000000000 q
b1000000010000000000000000000000 5
b1000000010000000000000000000000 o
b10000000000110000000000000000000000000000000000000000000000000000000 g
b10000000 n
b100 I
b10000000000110000000000000000000000000000000000000000000000000000000 9
b10000000000110000000000000000000000000000000000000000000000000000000 f
b10000000000110000000000000000000000000000000000000000000000000000000 h
18
1%
#370000
0%
#375000
b11000000000000000000000000000000000000000000000000000 ]
b110000000000000000000000000000000000000000000000000000 \
b1100000000000000000000000000000000000000000000000000000000000000000000000000000000000000000000000000000000 [
b11000000000000000000000000000000000000000000000000000 d
b10000000010 a
b10000000010 b
b110000000000000000000000000000000000000000000000000000000000000000000000000000000000000000000000000000000 c
b11100000000000000000000000000000000000000000000000000 T
b10000000001 Q
b11100000000000000000000000000000000000000000000000000 V
b1100000000000000000000000000000000000000000000000000 U
b10000000001 P
b11000000000000000000000000000000000000000000000000000 z
b10000000000110000000000000000000000000000000000000000000000000000000 <
b10000000000110000000000000000000000000000000000000000000000000000000 M
b10000000000110000000000000000000000000000000000000000000000000000000 s
b10000000000 t
b10000000001100000000000000000000000000000000000000000000000000000000 ;
b10000000001100000000000000000000000000000000000000000000000000000000 L
b10000000001100000000000000000000000000000000000000000000000000000000 ~
b10000000001 !"
b110 C
1>
0y
b1000000000000000000000000000000000000000000000000000 v
b10000000 u
b10000001 ""
b10000000001111000000000000000000000000000000000000000000000000000000 g
b1 A
b1 =
b1 k
b1 r
b1 }
b1000000100000000000000000000000 @
b1000000100000000000000000000000 |
b1000000010000000000000000000000 ?
b1000000010000000000000000000000 q
08
b1000000010000000000000000000000 "
b1000000010000000000000000000000 4
b1000000010000000000000000000000 H
b101 I
1%
#380000
0%
#385000
b0 C
0>
b1 =
b1 k
b1 r
b1 }
b1000000100000000000000000000000 @
b1000000100000000000000000000000 |
b1000000010000000000000000000000 ?
b1000000010000000000000000000000 q
b1000000111000000000000000000000 5
b1000000111000000000000000000000 o
b10000000001111000000000000000000000000000000000000000000000000000000 g
b10000001 n
b110 I
b10000000001111000000000000000000000000000000000000000000000000000000 9
b10000000001111000000000000000000000000000000000000000000000000000000 f
b10000000001111000000000000000000000000000000000000000000000000000000 h
18
1%
#390000
0%
#395000
b1111111010 Z
b1111111011 Y
b1000000000000000000000011111110000000000000000000000000000000000000000000000000000000000000000000000000000 [
b10001000000000000000001000011111110000000000000000000 T
b10001000000000000000001000011111110000000000000000000 V
b1000000000000000000000011111110000000000000000000 U
b10000000000000000000001000000000000000000000000000000 S
b100 O
b10000000000000000000000111111100000000000000000000000 z
b11111111111111111111111111111000000000000000000000011 ]
b11111111111111111111111111111000000000000000000000011 \
b10000000000000000000001111111100000000000000011111110 d
b10000001101 a
b10000001101 b
b100000000000000000000011111111000000000000000111111100000000000000000000000000000000000000000000000000000 c
b10000000000000000000001000000000000000000000000000000 '"
b10000001000 Q
b10000001000 P
b111111100000000000000000000000 v
b10000000100 u
b10000000100100000000000000000000001111111000000000000000000000000000 <
b10000000100100000000000000000000001111111000000000000000000000000000 M
b10000000100100000000000000000000001111111000000000000000000000000000 s
b10000000100 t
0&"
b1000000000000000000000000000000 #"
b10000001000 ""
b10000001000100000000000000000000010000000000000000000000000000000000 ;
b10000001000100000000000000000000010000000000000000000000000000000000 L
b10000001000100000000000000000000010000000000000000000000000000000000 ~
b10000001000 !"
b10000001000100010000000000000000010000111111100000000000000000000000 g
b11111111110 l
b1 m
b10000000001 n
b100000000011100000000000000000000000000000000000000000000000000 5
b100000000011100000000000000000000000000000000000000000000000000 o
b0 A
b10 =
b10 k
b10 r
b10 }
b100000010000000000000000000000001000000000000000000000000000000 @
b100000010000000000000000000000001000000000000000000000000000000 |
b100000001000000000000000000000000111111100000000000000000000000 ?
b100000001000000000000000000000000111111100000000000000000000000 q
08
1!
b100000011100000000000000000000001000000010000000000000000000000 "
b100000011100000000000000000000001000000010000000000000000000000 4
b100000011100000000000000000000001000000010000000000000000000000 H
b0 I
1%
#400000
0%
#405000
b100000010000001000000000000000001000011111110000000000000000000 5
b100000010000001000000000000000001000011111110000000000000000000 o
b10000001000100010000000000000000010000111111100000000000000000000000 g
b10000001000 n
0!
b10000001000100010000000000000000010000111111100000000000000000000000 9
b10000001000100010000000000000000010000111111100000000000000000000000 f
b10000001000100010000000000000000010000111111100000000000000000000000 h
1%
#410000
0%
#415000
b110 -
b101 ,
1%
#420000
0%
#425000
b10000001000100010000000000000000010000111111100000000000000000000000 g
b11 C
b100000001000000000000000000000000111111100000000000000000000000 (
b100000001000000000000000000000000111111100000000000000000000000 1
b100000010100000000000000000000001000000100000000000000000000000 '
b100000010100000000000000000000001000000100000000000000000000000 0
b1 &
b1 /
1+
1%
#430000
0%
#435000
b10000000001 Y
b1000000000000000000000000000000000000000000000000000000000000000000000000000000000000000000000000000000000 [
b100000000000000000000000000000000000000000000000000 U
b10000000000000000000000000000000000000000000000000000 S
b10 O
1N
b10000000000000000000000000000000000000000000000000000 z
b10000000000000000000000000000000000000000000000000000 ]
b10000000001 Z
b100000000000000000000000000000000000000000000000000000 \
b10000000000000000000000000000000000000000000000000000 d
b10000000001 a
b10000000001 b
b100000000000000000000000000000000000000000000000000000000000000000000000000000000000000000000000000000000 c
b10000000000000000000000000000000000000000000000000000 '"
b11000000000000000000000000000000000000000000000000000 T
b10000000000 Q
b11 R
0X
b1100000000000000000000000000000000000000000000000000 V
0W
b10000000001 P
1K
1y
b0 v
b10000001 u
b10000000001100000000000000000000000000000000000000000000000000000000 <
b10000000001100000000000000000000000000000000000000000000000000000000 M
b10000000001100000000000000000000000000000000000000000000000000000000 s
b10000000001 t
1&"
b0 #"
b1111111 ""
b1111111111100000000000000000000000000000000000000000000000000000000 ;
b1111111111100000000000000000000000000000000000000000000000000000000 L
b1111111111100000000000000000000000000000000000000000000000000000000 ~
b1111111111 !"
b10000000000110000000000000000000000000000000000000000000000000000000 g
b10001111110 l
b1110000001 m
b10001000 n
b1000100000010000000000000000010 5
b1000100000010000000000000000010 o
b1 =
b1 k
b1 r
b1 }
b111111100000000000000000000000 @
b111111100000000000000000000000 |
b1000000100000000000000000000000 ?
b1000000100000000000000000000000 q
1>
b100 C
b0 "
b0 4
b0 H
b1 D
b1 J
b100000001000000000000000000000000111111100000000000000000000000 F
b100000010100000000000000000000001000000100000000000000000000000 E
b11 I
0+
1%
#440000
0%
#445000
b101 C
0>
b1 =
b1 k
b1 r
b1 }
b111111100000000000000000000000 @
b111111100000000000000000000000 |
b1000000100000000000000000000000 ?
b1000000100000000000000000000000 q
b1000000010000000000000000000000 5
b1000000010000000000000000000000 o
b10000000000110000000000000000000000000000000000000000000000000000000 g
b10000000 n
b100 I
b10000000000110000000000000000000000000000000000000000000000000000000 9
b10000000000110000000000000000000000000000000000000000000000000000000 f
b10000000000110000000000000000000000000000000000000000000000000000000 h
18
1%
#450000
0%
#455000
b11010101010101010101010101010101010101010101010101010 ]
b1111111111 Z
b10000000000 Y
b11010101010101010101010101010101010101010101010101010 \
b1010000000000000000000000000000000000000000000000000000000000000000000000000000000000000000000000000000000 [
b11110000000000000000000000000000000000000000000000000 d
b10000000010 a
b10000000010 b
b111100000000000000000000000000000000000000000000000000000000000000000000000000000000000000000000000000000 c
b10000000000000000000000000000000000000000000000000000 T
b1000000000000000000000000000000000000000000000000000 V
b1100000000000000000000000000000000000000000000000000 U
b10100000000000000000000000000000000000000000000000000 S
b1 O
b10000000001101000000000000000000000000000000000000000000000000000000 <
b10000000001101000000000000000000000000000000000000000000000000000000 M
b10000000001101000000000000000000000000000000000000000000000000000000 s
b10100000000000000000000000000000000000000000000000000 z
b11000000000000000000000000000000000000000000000000000 '"
b10000000000110000000000000000000000000000000000000000000000000000000 ;
b10000000000110000000000000000000000000000000000000000000000000000000 L
b10000000000110000000000000000000000000000000000000000000000000000000 ~
b10000000000 !"
b110 C
1>
0y
b100000000000000000000000000000000000000000000000000 v
0&"
b1000000000000000000000000000000000000000000000000000 #"
b10000000 ""
b10000000000100000000000000000000000000000000000000000000000000000000 g
b1 A
b1 =
b1 k
b1 r
b1 }
b1000000010000000000000000000000 @
b1000000010000000000000000000000 |
b1000000101000000000000000000000 ?
b1000000101000000000000000000000 q
08
b1000000010000000000000000000000 "
b1000000010000000000000000000000 4
b1000000010000000000000000000000 H
b101 I
1%
#460000
0%
#465000
b0 C
0>
b1 =
b1 k
b1 r
b1 }
b1000000010000000000000000000000 @
b1000000010000000000000000000000 |
b1000000101000000000000000000000 ?
b1000000101000000000000000000000 q
b1000000000000000000000000000000 5
b1000000000000000000000000000000 o
b10000000000100000000000000000000000000000000000000000000000000000000 g
b110 I
b10000000000100000000000000000000000000000000000000000000000000000000 9
b10000000000100000000000000000000000000000000000000000000000000000000 f
b10000000000100000000000000000000000000000000000000000000000000000000 h
18
1%
#470000
0%
#475000
b10000000101 Y
b1000000000000000000000100000010000000000000000000000000000000000000000000000000000000000000000000000000000 [
b11111100000000000000001111111000001000000000000000000 T
b1111110000000000000000111111100000100000000000000000 V
b10000000000000000000000111111100000000000000000 U
b10000000000000000000001000000100000000000000000000000 S
b110 O
b10000000000000000000001000000100000000000000000000000 z
b10000000000000000000000000000111111111111111111111100 ]
b10000000101 Z
b100000000000000000000000000001111111111111111111111000 \
b10000000000000000000010000000000000000000000011111111 d
b10000001111 a
b10000001111 b
b100000000000000000000100000000000000000000000111111111111110000000000000000000000000000000000000000000000 c
b10000000000000000000000111111100000000000000000000000 '"
b10000001001 Q
b10000001010 P
b1000000100000000000000000000000 v
b10000001010 u
b10000001010100000000000000000000010000001000000000000000000000000000 <
b10000001010100000000000000000000010000001000000000000000000000000000 M
b10000001010100000000000000000000010000001000000000000000000000000000 s
b10000001010 t
b111111100000000000000000000000 #"
b10000000100 ""
b10000000100100000000000000000000001111111000000000000000000000000000 ;
b10000000100100000000000000000000001111111000000000000000000000000000 L
b10000000100100000000000000000000001111111000000000000000000000000000 ~
b10000000100 !"
b10000001001111111000000000000000011111110000010000000000000000000000 g
b11111111110 l
b1 m
b10000000000 n
b100000000000000000000000000000000000000000000000000000000000000 5
b100000000000000000000000000000000000000000000000000000000000000 o
b0 A
b10 =
b10 k
b10 r
b10 }
b100000001000000000000000000000000111111100000000000000000000000 @
b100000001000000000000000000000000111111100000000000000000000000 |
b100000010100000000000000000000001000000100000000000000000000000 ?
b100000010100000000000000000000001000000100000000000000000000000 q
08
1!
b100000000000000000000000000000001000000010000000000000000000000 "
b100000000000000000000000000000001000000010000000000000000000000 4
b100000000000000000000000000000001000000010000000000000000000000 H
b0 I
1%
#480000
0%
#485000
b100000010011111100000000000000001111111000001000000000000000000 5
b100000010011111100000000000000001111111000001000000000000000000 o
b10000001001111111000000000000000011111110000010000000000000000000000 g
b10000001001 n
0!
b10000001001111111000000000000000011111110000010000000000000000000000 9
b10000001001111111000000000000000011111110000010000000000000000000000 f
b10000001001111111000000000000000011111110000010000000000000000000000 h
1%
#490000
0%
#495000
b111 -
b110 ,
1%
#500000
0%
#505000
b10000001001111111000000000000000011111110000010000000000000000000000 g
b11 C
b100000010000000000000000000000001000000010000000000000000000000 (
b100000010000000000000000000000001000000010000000000000000000000 1
b100000001000000000000000000000001000000000000000000000000000000 '
b100000001000000000000000000000001000000000000000000000000000000 0
b10 &
b10 /
1+
1%
#510000
0%
